<svg width="594" height="594" viewBox="0 0 594 594" fill="none" xmlns="http://www.w3.org/2000/svg">
<circle opacity="0.05" cx="296.693" cy="296.693" r="296.693" fill="#FF8258"/>
<circle cx="296.693" cy="296.693" r="227.311" fill="#FF8258"/>
<g filter="url(#filter0_i)">
<path fill-rule="evenodd" clip-rule="evenodd" d="M407 162.524V242.147C407 243.335 406.037 244.299 404.848 244.299H401.62V160.372H404.848C406.037 160.372 407 161.336 407 162.524Z" fill="#43475A"/>
</g>
<g filter="url(#filter1_i)">
<path fill-rule="evenodd" clip-rule="evenodd" d="M178.892 162.524V197.494C178.892 198.682 179.856 199.646 181.044 199.646H184.272V160.372H181.044C179.856 160.372 178.892 161.336 178.892 162.524Z" fill="#494C5F"/>
</g>
<g filter="url(#filter2_i)">
<path fill-rule="evenodd" clip-rule="evenodd" d="M178.892 207.177V242.147C178.892 243.335 179.856 244.299 181.044 244.299H184.272V205.026H181.044C179.856 205.026 178.892 205.989 178.892 207.177Z" fill="#494C5F"/>
</g>
<g filter="url(#filter3_ii)">
<path d="M181.044 107.111C181.044 86.3126 197.905 69.4519 218.704 69.4519H367.189C387.988 69.4519 404.848 86.3126 404.848 107.111V492.312C404.848 513.111 387.988 529.972 367.189 529.972H218.704C197.905 529.972 181.044 513.111 181.044 492.312V107.111Z" fill="#2F3239"/>
<path d="M181.044 107.111C181.044 86.3126 197.905 69.4519 218.704 69.4519H367.189C387.988 69.4519 404.848 86.3126 404.848 107.111V492.312C404.848 513.111 387.988 529.972 367.189 529.972H218.704C197.905 529.972 181.044 513.111 181.044 492.312V107.111Z" fill="url(#paint0_linear)"/>
<path d="M181.044 107.111C181.044 86.3126 197.905 69.4519 218.704 69.4519H367.189C387.988 69.4519 404.848 86.3126 404.848 107.111V492.312C404.848 513.111 387.988 529.972 367.189 529.972H218.704C197.905 529.972 181.044 513.111 181.044 492.312V107.111Z" fill="url(#paint1_linear)"/>
<path d="M181.044 107.111C181.044 86.3126 197.905 69.4519 218.704 69.4519H367.189C387.988 69.4519 404.848 86.3126 404.848 107.111V492.312C404.848 513.111 387.988 529.972 367.189 529.972H218.704C197.905 529.972 181.044 513.111 181.044 492.312V107.111Z" fill="url(#paint2_linear)"/>
</g>
<rect x="191.804" y="80.2118" width="201.746" height="436.848" rx="26.8995" fill="black" fill-opacity="0.2"/>
<mask id="mask0" mask-type="alpha" maskUnits="userSpaceOnUse" x="191" y="80" width="203" height="438">
<rect x="191.804" y="80.2118" width="201.746" height="436.848" rx="26.8995" fill="white"/>
</mask>
<g mask="url(#mask0)">
<path d="M191.804 80.2118H393.551V517.06H191.804V80.2118Z" fill="black" fill-opacity="0.2"/>
<rect x="191.804" y="80.2118" width="201.746" height="436.848" fill="white"/>
<rect opacity="0.3" x="199.874" y="181.452" width="101.68" height="68.8628" rx="4.30392" fill="#FF774A"/>
<g style="mix-blend-mode:multiply">
<rect x="305.858" y="192.212" width="41.4253" height="8.60785" rx="4.30392" fill="#FF774A"/>
</g>
<g style="mix-blend-mode:multiply">
<rect x="305.858" y="207.813" width="79.0846" height="4.30392" rx="2.15196" fill="#E9EDEF"/>
</g>
<g style="mix-blend-mode:multiply">
<rect x="305.858" y="216.421" width="79.0846" height="4.30392" rx="2.15196" fill="#E9EDEF"/>
</g>
<rect opacity="0.3" x="199.874" y="345.001" width="101.68" height="68.8628" rx="4.30392" fill="#FF774A"/>
<g style="mix-blend-mode:multiply">
<rect x="305.858" y="355.761" width="41.4253" height="8.60785" rx="4.30392" fill="#FF774A"/>
</g>
<g style="mix-blend-mode:multiply">
<rect x="305.858" y="371.362" width="79.0846" height="4.30392" rx="2.15196" fill="#E9EDEF"/>
</g>
<g style="mix-blend-mode:multiply">
<rect x="305.858" y="379.97" width="79.0846" height="4.30392" rx="2.15196" fill="#E9EDEF"/>
</g>
<rect opacity="0.3" x="199.874" y="263.226" width="101.68" height="68.8628" rx="4.30392" fill="#FF774A"/>
<g style="mix-blend-mode:multiply">
<rect x="305.858" y="273.986" width="41.4253" height="8.60785" rx="4.30392" fill="#FF774A"/>
</g>
<g style="mix-blend-mode:multiply">
<rect x="305.858" y="289.588" width="79.0846" height="4.30392" rx="2.15196" fill="#E9EDEF"/>
</g>
<g style="mix-blend-mode:multiply">
<rect x="305.858" y="298.196" width="79.0846" height="4.30392" rx="2.15196" fill="#E9EDEF"/>
</g>
<rect opacity="0.3" x="199.874" y="426.775" width="101.68" height="68.8628" rx="4.30392" fill="#FF774A"/>
<g style="mix-blend-mode:multiply">
<rect x="305.858" y="437.535" width="41.4253" height="8.60785" rx="4.30392" fill="#FF774A"/>
</g>
<g style="mix-blend-mode:multiply">
<rect x="305.858" y="453.137" width="79.0846" height="4.30392" rx="2.15196" fill="#E9EDEF"/>
</g>
<g style="mix-blend-mode:multiply">
<rect x="305.858" y="461.745" width="79.0846" height="4.30392" rx="2.15196" fill="#E9EDEF"/>
</g>
<path d="M241.209 158.94C239.396 158.94 237.892 158.343 236.699 157.15C235.505 155.945 234.908 154.458 234.908 152.691C234.908 150.923 235.505 149.443 236.699 148.249C237.892 147.044 239.396 146.442 241.209 146.442C242.299 146.442 243.304 146.7 244.222 147.216C245.152 147.733 245.875 148.433 246.391 149.317L244.67 150.315C244.348 149.718 243.878 149.248 243.258 148.903C242.65 148.548 241.967 148.37 241.209 148.37C239.924 148.37 238.879 148.777 238.076 149.592C237.284 150.407 236.888 151.44 236.888 152.691C236.888 153.942 237.284 154.975 238.076 155.79C238.879 156.605 239.924 157.012 241.209 157.012C241.967 157.012 242.655 156.84 243.275 156.496C243.895 156.14 244.36 155.664 244.67 155.067L246.391 156.048C245.886 156.932 245.169 157.638 244.239 158.166C243.321 158.682 242.311 158.94 241.209 158.94ZM252.62 147.802L251.708 149.076H249.814L251.639 146.665H253.584L255.409 149.076H253.515L252.62 147.802ZM255.254 150.109H257.113V158.716H255.254V157.477C254.554 158.452 253.55 158.94 252.241 158.94C251.059 158.94 250.049 158.504 249.211 157.632C248.373 156.748 247.954 155.675 247.954 154.413C247.954 153.139 248.373 152.065 249.211 151.193C250.049 150.321 251.059 149.885 252.241 149.885C253.55 149.885 254.554 150.367 255.254 151.331V150.109ZM250.588 156.392C251.105 156.909 251.753 157.167 252.534 157.167C253.314 157.167 253.963 156.909 254.479 156.392C254.996 155.864 255.254 155.204 255.254 154.413C255.254 153.621 254.996 152.966 254.479 152.45C253.963 151.922 253.314 151.658 252.534 151.658C251.753 151.658 251.105 151.922 250.588 152.45C250.072 152.966 249.814 153.621 249.814 154.413C249.814 155.204 250.072 155.864 250.588 156.392ZM269.218 149.885C270.194 149.885 270.98 150.2 271.577 150.832C272.174 151.463 272.472 152.312 272.472 153.38V158.716H270.613V153.5C270.613 152.903 270.463 152.444 270.165 152.123C269.867 151.79 269.459 151.624 268.943 151.624C268.369 151.624 267.91 151.813 267.565 152.192C267.233 152.57 267.066 153.139 267.066 153.896V158.716H265.207V153.5C265.207 152.903 265.063 152.444 264.777 152.123C264.501 151.79 264.105 151.624 263.589 151.624C263.026 151.624 262.567 151.819 262.211 152.209C261.856 152.588 261.678 153.15 261.678 153.896V158.716H259.818V150.109H261.678V151.142C262.229 150.304 263.049 149.885 264.14 149.885C265.241 149.885 266.056 150.338 266.584 151.245C267.158 150.338 268.036 149.885 269.218 149.885ZM276.463 155.204C276.601 155.859 276.916 156.364 277.41 156.719C277.904 157.064 278.506 157.236 279.218 157.236C280.205 157.236 280.945 156.88 281.438 156.169L282.971 157.064C282.121 158.315 280.865 158.94 279.2 158.94C277.8 158.94 276.67 158.516 275.809 157.666C274.948 156.805 274.518 155.721 274.518 154.413C274.518 153.127 274.942 152.054 275.792 151.193C276.641 150.321 277.731 149.885 279.063 149.885C280.325 149.885 281.358 150.327 282.162 151.21C282.976 152.094 283.384 153.167 283.384 154.43C283.384 154.625 283.361 154.883 283.315 155.204H276.463ZM276.446 153.689H281.507C281.381 152.989 281.088 152.461 280.629 152.106C280.182 151.75 279.654 151.572 279.045 151.572C278.357 151.572 277.783 151.761 277.324 152.14C276.865 152.519 276.572 153.035 276.446 153.689ZM287.417 151.555C287.888 150.487 288.771 149.954 290.068 149.954V151.968C289.357 151.922 288.737 152.094 288.209 152.484C287.681 152.863 287.417 153.494 287.417 154.378V158.716H285.558V150.109H287.417V151.555ZM298.394 150.109H300.253V158.716H298.394V157.477C297.694 158.452 296.69 158.94 295.381 158.94C294.199 158.94 293.189 158.504 292.351 157.632C291.514 156.748 291.095 155.675 291.095 154.413C291.095 153.139 291.514 152.065 292.351 151.193C293.189 150.321 294.199 149.885 295.381 149.885C296.69 149.885 297.694 150.367 298.394 151.331V150.109ZM293.729 156.392C294.245 156.909 294.894 157.167 295.674 157.167C296.454 157.167 297.103 156.909 297.619 156.392C298.136 155.864 298.394 155.204 298.394 154.413C298.394 153.621 298.136 152.966 297.619 152.45C297.103 151.922 296.454 151.658 295.674 151.658C294.894 151.658 294.245 151.922 293.729 152.45C293.212 152.966 292.954 153.621 292.954 154.413C292.954 155.204 293.212 155.864 293.729 156.392ZM304.578 152.484C304.578 152.771 304.733 153.001 305.043 153.173C305.364 153.334 305.749 153.477 306.196 153.603C306.655 153.718 307.114 153.856 307.574 154.017C308.033 154.177 308.417 154.453 308.727 154.843C309.048 155.222 309.209 155.704 309.209 156.289C309.209 157.115 308.888 157.764 308.245 158.234C307.614 158.705 306.816 158.94 305.852 158.94C305.003 158.94 304.274 158.762 303.666 158.407C303.057 158.051 302.615 157.557 302.34 156.926L303.941 155.996C304.239 156.823 304.876 157.236 305.852 157.236C306.828 157.236 307.315 156.915 307.315 156.272C307.315 155.996 307.155 155.773 306.833 155.6C306.523 155.428 306.139 155.285 305.68 155.17C305.232 155.044 304.779 154.9 304.32 154.74C303.861 154.579 303.47 154.315 303.149 153.948C302.839 153.569 302.684 153.093 302.684 152.519C302.684 151.727 302.983 151.09 303.579 150.608C304.188 150.126 304.94 149.885 305.835 149.885C306.546 149.885 307.178 150.045 307.728 150.367C308.291 150.677 308.721 151.113 309.02 151.675L307.453 152.553C307.155 151.899 306.615 151.572 305.835 151.572C305.479 151.572 305.181 151.652 304.94 151.813C304.698 151.962 304.578 152.186 304.578 152.484Z" fill="#343C40"/>
<mask id="path-29-inside-1" fill="white">
<rect x="202.026" y="144.33" width="16.6777" height="13.9878" rx="1.07598"/>
</mask>
<rect x="202.026" y="144.33" width="16.6777" height="13.9878" rx="1.07598" stroke="url(#paint3_linear)" stroke-width="4.30392" mask="url(#path-29-inside-1)"/>
<path d="M217.628 151.055L222.47 145.944V156.166L217.628 151.055Z" stroke="#FF6057" stroke-width="2.15196" stroke-linecap="round" stroke-linejoin="round"/>
<path fill-rule="evenodd" clip-rule="evenodd" d="M208.257 103.649L209.018 104.517L205.7 108.303L209.018 112.089L208.257 112.957L204.178 108.303L208.257 103.649Z" fill="#FF8258"/>
<path fill-rule="evenodd" clip-rule="evenodd" d="M280.975 108.559C280.975 110.97 279.026 112.924 276.622 112.924C274.217 112.924 272.268 110.97 272.268 108.559C272.268 106.148 274.217 104.194 276.622 104.194C279.026 104.194 280.975 106.148 280.975 108.559ZM273.465 108.559H274.554C274.554 109.693 275.461 110.614 276.588 110.632L276.622 110.632V111.724C274.896 111.724 273.494 110.335 273.466 108.611L273.465 108.559ZM276.622 106.486V105.394C278.348 105.394 279.75 106.783 279.778 108.507L279.778 108.559H278.69C278.69 107.425 277.782 106.504 276.656 106.486L276.622 106.486Z" fill="#495257"/>
<path d="M270.355 104.714C269.653 105.862 269.275 107.184 269.275 108.559C269.275 112.627 272.564 115.925 276.622 115.925C277.853 115.925 279.042 115.62 280.104 115.047L279.329 113.606C278.504 114.052 277.581 114.288 276.622 114.288C273.466 114.288 270.908 111.723 270.908 108.559C270.908 107.488 271.201 106.462 271.747 105.569L270.355 104.714Z" fill="#495257"/>
<path d="M283.009 112.201C283.635 111.1 283.968 109.853 283.968 108.559C283.968 106.681 283.263 104.911 282.017 103.56C281.665 103.178 281.274 102.834 280.85 102.535L279.909 103.873C280.239 104.106 280.544 104.374 280.818 104.671C281.788 105.723 282.336 107.097 282.336 108.559C282.336 109.567 282.077 110.535 281.59 111.39L283.009 112.201Z" fill="#495257"/>
<path d="M279.298 101.698C278.452 101.366 277.548 101.193 276.622 101.193C275.417 101.193 274.252 101.485 273.208 102.035L273.968 103.484C274.779 103.057 275.683 102.83 276.622 102.83C277.344 102.83 278.046 102.964 278.703 103.222L279.298 101.698Z" fill="#495257"/>
<path fill-rule="evenodd" clip-rule="evenodd" d="M281.915 113.9C282.287 113.527 282.287 112.922 281.915 112.55C281.543 112.177 280.94 112.177 280.568 112.55C280.197 112.922 280.197 113.527 280.568 113.9C280.94 114.273 281.543 114.273 281.915 113.9Z" fill="#495257"/>
<path fill-rule="evenodd" clip-rule="evenodd" d="M272.697 104.624C273.069 104.251 273.069 103.647 272.697 103.274C272.325 102.901 271.722 102.901 271.35 103.274C270.978 103.647 270.978 104.251 271.35 104.624C271.722 104.997 272.325 104.997 272.697 104.624Z" fill="#495257"/>
<path fill-rule="evenodd" clip-rule="evenodd" d="M290.156 111.903C291.638 111.903 292.691 111.107 292.691 109.764C292.691 108.321 291.576 107.938 290.559 107.624L290.497 107.605C289.445 107.28 289.272 107.062 289.269 106.749L289.268 106.739C289.268 106.46 289.512 106.212 290 106.212C290.624 106.212 290.945 106.52 291.179 107.018L292.496 106.232C291.998 105.207 291.121 104.66 290 104.66C288.82 104.66 287.709 105.436 287.709 106.779C287.709 108.112 288.703 108.609 289.717 108.898L289.837 108.932C290.771 109.2 291.131 109.373 291.131 109.783L291.13 109.801C291.122 110.065 290.929 110.351 290.204 110.351C289.434 110.351 289.015 109.963 288.771 109.386L287.426 110.181C287.806 111.206 288.722 111.903 290.156 111.903ZM296.457 108.222V106.789H295.453V105.396L293.991 105.844V106.789H293.211V108.222H293.991V109.983C293.991 111.375 294.546 111.962 296.457 111.763V110.41L296.392 110.414C295.789 110.447 295.453 110.396 295.453 109.983V108.222H296.457ZM299.171 106.789V107.674C299.366 107.008 300.019 106.689 300.633 106.689V108.381C300.029 108.281 299.171 108.53 299.171 109.515V111.764H297.708V106.789H299.171ZM302.801 109.873H306.262C306.301 109.684 306.321 109.485 306.321 109.276C306.321 107.774 305.268 106.65 303.844 106.65C302.304 106.65 301.251 107.794 301.251 109.276C301.251 110.759 302.284 111.903 303.952 111.903C304.878 111.903 305.599 111.554 306.077 110.878L304.907 110.191C304.712 110.41 304.371 110.57 303.971 110.57C303.435 110.57 302.986 110.39 302.801 109.873ZM303.834 107.973C303.279 107.973 302.908 108.251 302.772 108.759H304.868C304.712 108.182 304.273 107.973 303.834 107.973ZM308.732 109.873H312.193C312.232 109.684 312.252 109.485 312.252 109.276C312.252 107.774 311.199 106.65 309.775 106.65C308.235 106.65 307.182 107.794 307.182 109.276C307.182 110.759 308.215 111.903 309.883 111.903C310.809 111.903 311.53 111.554 312.008 110.878L310.838 110.191C310.643 110.41 310.302 110.57 309.902 110.57C309.366 110.57 308.917 110.39 308.732 109.873ZM309.766 107.973C309.21 107.973 308.839 108.251 308.703 108.759H310.799C310.643 108.182 310.204 107.973 309.766 107.973ZM316.116 108.222V106.789H315.112V105.396L313.649 105.844V106.789H312.869V108.222H313.649V109.983C313.649 111.375 314.205 111.962 316.116 111.763V110.41L316.05 110.414C315.448 110.447 315.112 110.396 315.112 109.983V108.222H316.116ZM321.998 106.789H320.438L319.522 109.833L318.44 106.789H316.831L318.771 111.535C318.557 112.141 318.235 112.36 317.552 112.36V113.753C318.917 113.823 319.785 113.196 320.331 111.614L321.998 106.789Z" fill="#495257"/>
<g filter="url(#filter4_i)">
<rect x="192.611" y="81.0188" width="200.132" height="435.234" rx="26.0925" stroke="url(#paint4_linear)" stroke-width="1.61397"/>
</g>
</g>
<g opacity="0.5" filter="url(#filter5_f)">
<rect x="71.0947" y="255.98" width="244.163" height="166.506" rx="5.59685" fill="#869196"/>
</g>
<rect x="62" y="248.887" width="262.352" height="170.704" rx="5.59685" fill="white"/>
<rect x="62.7321" y="249.619" width="260.888" height="169.24" rx="4.86478" stroke="url(#paint5_linear)" stroke-opacity="0.4" stroke-width="1.46413"/>
<path d="M86.562 379.519C86.3115 377.711 84.9203 376.661 83.1156 376.661C80.989 376.661 79.387 378.211 79.387 380.843C79.387 383.47 80.9691 385.025 83.1156 385.025C85.0515 385.025 86.3354 383.773 86.562 382.218L85.0753 382.21C84.8885 383.164 84.1094 383.701 83.1355 383.701C81.8158 383.701 80.8697 382.711 80.8697 380.843C80.8697 379.006 81.8078 377.985 83.1395 377.985C84.1292 377.985 84.9044 378.545 85.0753 379.519H86.562ZM89.5591 384.913L90.2309 382.906H93.2917L93.9675 384.913H95.5416L92.6716 376.773H90.851L87.985 384.913H89.5591ZM90.6284 381.721L91.7295 378.442H91.7931L92.8942 381.721H90.6284ZM104.003 376.773H102.537V382.322H102.465L98.6332 376.773H97.3134V384.913H98.7882V379.368H98.8558L102.692 384.913H104.003V376.773ZM113.278 379.519C113.028 377.711 111.636 376.661 109.832 376.661C107.705 376.661 106.103 378.211 106.103 380.843C106.103 383.47 107.685 385.025 109.832 385.025C111.768 385.025 113.052 383.773 113.278 382.218L111.792 382.21C111.605 383.164 110.826 383.701 109.852 383.701C108.532 383.701 107.586 382.711 107.586 380.843C107.586 379.006 108.524 377.985 109.856 377.985C110.845 377.985 111.621 378.545 111.792 379.519H113.278ZM115.328 384.913H120.655V383.677H116.803V381.455H120.349V380.219H116.803V378.009H120.623V376.773H115.328V384.913ZM122.827 384.913H127.887V383.677H124.302V376.773H122.827V384.913ZM131.219 384.913L131.89 382.906H134.951L135.627 384.913H137.201L134.331 376.773H132.51L129.644 384.913H131.219ZM132.288 381.721L133.389 378.442H133.452L134.554 381.721H132.288ZM138.973 384.913H140.448V381.932H141.95L143.548 384.913H145.194L143.433 381.686C144.391 381.3 144.896 380.481 144.896 379.376C144.896 377.822 143.894 376.773 142.026 376.773H138.973V384.913ZM140.448 380.708V378.005H141.799C142.9 378.005 143.393 378.51 143.393 379.376C143.393 380.243 142.9 380.708 141.807 380.708H140.448Z" fill="#343C40"/>
<rect x="185.13" y="366.518" width="122.431" height="30.7827" rx="2.79842" fill="#FF8258"/>
<path d="M199.225 386.312H204.552V385.076H200.7V382.854H204.246V381.618H200.7V379.408H204.52V378.172H199.225V386.312ZM213.414 378.172H211.947V383.721H211.876L208.044 378.172H206.724V386.312H208.199V380.767H208.266L212.102 386.312H213.414V378.172ZM216.81 378.172H215.192L218.058 386.312H219.879L222.748 378.172H221.127L219.012 384.579H218.928L216.81 378.172ZM225.995 378.172H224.52V386.312H225.995V378.172ZM229.337 386.312L230.009 384.305H233.07L233.745 386.312H235.32L232.45 378.172H230.629L227.763 386.312H229.337ZM230.406 383.121L231.507 379.841H231.571L232.672 383.121H230.406ZM237.091 386.312H238.566V383.331H240.069L241.667 386.312H243.312L241.551 383.085C242.509 382.699 243.014 381.88 243.014 380.775C243.014 379.221 242.012 378.172 240.144 378.172H237.091V386.312ZM238.566 382.107V379.404H239.918C241.019 379.404 241.512 379.909 241.512 380.775C241.512 381.642 241.019 382.107 239.926 382.107H238.566ZM249.593 386.312L250.265 384.305H253.325L254.001 386.312H255.575L252.705 378.172H250.885L248.019 386.312H249.593ZM250.662 383.121L251.763 379.841H251.827L252.928 383.121H250.662ZM257.347 386.312H262.407V385.076H258.822V378.172H257.347V386.312ZM264.387 386.312H269.714V385.076H265.862V382.854H269.407V381.618H265.862V379.408H269.682V378.172H264.387V386.312ZM271.886 386.312H273.361V383.331H274.863L276.461 386.312H278.107L276.346 383.085C277.304 382.699 277.809 381.88 277.809 380.775C277.809 379.221 276.807 378.172 274.939 378.172H271.886V386.312ZM273.361 382.107V379.404H274.712C275.813 379.404 276.306 379.909 276.306 380.775C276.306 381.642 275.813 382.107 274.72 382.107H273.361ZM279.508 379.408H282.024V386.312H283.487V379.408H286.003V378.172H279.508V379.408ZM288.017 386.312L288.688 384.305H291.749L292.425 386.312H293.999L291.129 378.172H289.308L286.442 386.312H288.017ZM289.086 383.121L290.187 379.841H290.251L291.352 383.121H289.086Z" fill="white"/>
<path d="M82.9324 283.312H89.8725V285.775H80.3579V270.104H89.7606V272.566H82.9324V276.641H89.2009V279.081H82.9324V283.312ZM98.6601 274.29C99.9437 274.29 100.981 274.7 101.772 275.521C102.563 276.342 102.958 277.469 102.958 278.902V285.775H100.541V279.148C100.541 278.312 100.317 277.67 99.869 277.223C99.4213 276.775 98.8094 276.551 98.0333 276.551C97.1825 276.551 96.496 276.82 95.9736 277.357C95.4513 277.879 95.1901 278.685 95.1901 279.775V285.775H92.7722V274.581H95.1901V276.014C95.9214 274.865 97.0781 274.29 98.6601 274.29ZM113.676 274.581H116.318L111.952 285.775H109.154L104.788 274.581H107.43L110.564 283.088L113.676 274.581ZM120.832 272.454C120.533 272.753 120.175 272.902 119.757 272.902C119.339 272.902 118.974 272.753 118.66 272.454C118.362 272.141 118.213 271.775 118.213 271.357C118.213 270.939 118.362 270.581 118.66 270.283C118.959 269.969 119.324 269.813 119.757 269.813C120.19 269.813 120.556 269.969 120.854 270.283C121.153 270.581 121.302 270.939 121.302 271.357C121.302 271.775 121.145 272.141 120.832 272.454ZM118.548 285.775V274.581H120.966V285.775H118.548ZM133.339 274.581H135.756V285.775H133.339V284.163C132.428 285.431 131.122 286.066 129.421 286.066C127.883 286.066 126.57 285.499 125.481 284.364C124.391 283.215 123.846 281.82 123.846 280.178C123.846 278.521 124.391 277.126 125.481 275.991C126.57 274.857 127.883 274.29 129.421 274.29C131.122 274.29 132.428 274.917 133.339 276.171V274.581ZM127.272 282.752C127.943 283.424 128.786 283.76 129.801 283.76C130.816 283.76 131.659 283.424 132.331 282.752C133.003 282.066 133.339 281.208 133.339 280.178C133.339 279.148 133.003 278.297 132.331 277.626C131.659 276.939 130.816 276.596 129.801 276.596C128.786 276.596 127.943 276.939 127.272 277.626C126.6 278.297 126.264 279.148 126.264 280.178C126.264 281.208 126.6 282.066 127.272 282.752ZM141.692 276.462C142.304 275.074 143.453 274.38 145.14 274.38V276.999C144.214 276.939 143.408 277.163 142.722 277.67C142.035 278.163 141.692 278.984 141.692 280.133V285.775H139.274V274.581H141.692V276.462ZM162.788 274.581H165.205V285.775H162.788V284.163C161.877 285.431 160.571 286.066 158.87 286.066C157.333 286.066 156.019 285.499 154.93 284.364C153.84 283.215 153.295 281.82 153.295 280.178C153.295 278.521 153.84 277.126 154.93 275.991C156.019 274.857 157.333 274.29 158.87 274.29C160.571 274.29 161.877 274.917 162.788 276.171V274.581ZM156.721 282.752C157.392 283.424 158.235 283.76 159.25 283.76C160.265 283.76 161.109 283.424 161.78 282.752C162.452 282.066 162.788 281.208 162.788 280.178C162.788 279.148 162.452 278.297 161.78 277.626C161.109 276.939 160.265 276.596 159.25 276.596C158.235 276.596 157.392 276.939 156.721 277.626C156.049 278.297 155.713 279.148 155.713 280.178C155.713 281.208 156.049 282.066 156.721 282.752ZM168.723 285.775V269.432H171.141V285.775H168.723ZM176.551 281.208C176.73 282.058 177.14 282.715 177.782 283.178C178.424 283.626 179.208 283.849 180.133 283.849C181.416 283.849 182.379 283.387 183.021 282.461L185.013 283.626C183.909 285.252 182.275 286.066 180.111 286.066C178.29 286.066 176.82 285.514 175.7 284.409C174.581 283.29 174.021 281.879 174.021 280.178C174.021 278.506 174.573 277.111 175.678 275.991C176.782 274.857 178.2 274.29 179.931 274.29C181.573 274.29 182.916 274.865 183.961 276.014C185.021 277.163 185.551 278.559 185.551 280.2C185.551 280.454 185.521 280.79 185.461 281.208H176.551ZM176.529 279.238H183.11C182.946 278.327 182.566 277.641 181.969 277.178C181.387 276.715 180.7 276.484 179.909 276.484C179.014 276.484 178.267 276.73 177.67 277.223C177.073 277.715 176.693 278.387 176.529 279.238ZM190.796 276.462C191.408 275.074 192.557 274.38 194.243 274.38V276.999C193.318 276.939 192.512 277.163 191.825 277.67C191.139 278.163 190.796 278.984 190.796 280.133V285.775H188.378V274.581H190.796V276.462ZM203.26 276.909H200.484V282.282C200.484 282.745 200.588 283.081 200.797 283.29C201.006 283.484 201.312 283.596 201.715 283.626C202.133 283.64 202.648 283.633 203.26 283.603V285.775C201.409 285.999 200.081 285.842 199.275 285.305C198.469 284.752 198.066 283.745 198.066 282.282V276.909H196.006V274.581H198.066V272.163L200.484 271.447V274.581H203.26V276.909ZM214.558 274.581H216.976V285.775H214.558V284.163C213.648 285.431 212.342 286.066 210.641 286.066C209.103 286.066 207.79 285.499 206.7 284.364C205.611 283.215 205.066 281.82 205.066 280.178C205.066 278.521 205.611 277.126 206.7 275.991C207.79 274.857 209.103 274.29 210.641 274.29C212.342 274.29 213.648 274.917 214.558 276.171V274.581ZM208.491 282.752C209.163 283.424 210.006 283.76 211.021 283.76C212.036 283.76 212.879 283.424 213.551 282.752C214.223 282.066 214.558 281.208 214.558 280.178C214.558 279.148 214.223 278.297 213.551 277.626C212.879 276.939 212.036 276.596 211.021 276.596C210.006 276.596 209.163 276.939 208.491 277.626C207.82 278.297 207.484 279.148 207.484 280.178C207.484 281.208 207.82 282.066 208.491 282.752Z" fill="#212629"/>
<rect x="78.7908" y="316.146" width="228.771" height="33.5811" rx="5.59685" fill="#F8F9FA"/>
<path d="M92.4489 328.267H91.2166V338.443H92.4489V328.267ZM95.9333 333.852C95.9333 332.52 96.7581 331.765 97.881 331.765C98.9692 331.765 99.63 332.475 99.63 333.673V338.443H100.803V333.593C100.803 331.646 99.7642 330.711 98.2189 330.711C97.0661 330.711 96.3506 331.228 95.9929 332.003H95.8935V330.811H94.7606V338.443H95.9333V333.852ZM108.352 332.52C107.984 331.437 107.159 330.711 105.648 330.711C104.039 330.711 102.846 331.626 102.846 332.918C102.846 333.971 103.472 334.677 104.873 335.005L106.145 335.303C106.916 335.482 107.278 335.849 107.278 336.376C107.278 337.032 106.583 337.568 105.489 337.568C104.531 337.568 103.929 337.156 103.721 336.336L102.608 336.614C102.881 337.911 103.949 338.602 105.509 338.602C107.283 338.602 108.491 337.633 108.491 336.316C108.491 335.253 107.825 334.582 106.463 334.249L105.33 333.971C104.426 333.747 104.019 333.444 104.019 332.858C104.019 332.202 104.714 331.725 105.648 331.725C106.672 331.725 107.094 332.292 107.298 332.818L108.352 332.52ZM110.256 338.443H111.428V330.811H110.256V338.443ZM110.852 329.539C111.309 329.539 111.687 329.181 111.687 328.744C111.687 328.307 111.309 327.949 110.852 327.949C110.395 327.949 110.017 328.307 110.017 328.744C110.017 329.181 110.395 329.539 110.852 329.539ZM113.576 338.443H114.749V333.613C114.749 332.58 115.564 331.824 116.677 331.824C116.99 331.824 117.313 331.884 117.392 331.904V330.711C117.258 330.702 116.95 330.692 116.776 330.692C115.862 330.692 115.067 331.208 114.789 331.964H114.709V330.811H113.576V338.443ZM121.028 338.622C122.36 338.622 123.055 337.906 123.294 337.409H123.354V338.443H124.526V333.415C124.526 330.99 122.678 330.711 121.704 330.711C120.551 330.711 119.239 331.109 118.643 332.5L119.756 332.898C120.015 332.341 120.626 331.745 121.744 331.745C122.822 331.745 123.354 332.316 123.354 333.295V333.335C123.354 333.901 122.777 333.852 121.386 334.031C119.97 334.214 118.425 334.528 118.425 336.277C118.425 337.767 119.577 338.622 121.028 338.622ZM121.207 337.568C120.273 337.568 119.597 337.151 119.597 336.336C119.597 335.442 120.412 335.164 121.326 335.044C121.823 334.985 123.155 334.846 123.354 334.607V335.68C123.354 336.634 122.598 337.568 121.207 337.568ZM136.008 332.52C135.64 331.437 134.815 330.711 133.305 330.711C131.695 330.711 130.502 331.626 130.502 332.918C130.502 333.971 131.128 334.677 132.53 335.005L133.802 335.303C134.572 335.482 134.935 335.849 134.935 336.376C134.935 337.032 134.239 337.568 133.146 337.568C132.187 337.568 131.586 337.156 131.377 336.336L130.264 336.614C130.537 337.911 131.605 338.602 133.166 338.602C134.94 338.602 136.147 337.633 136.147 336.316C136.147 335.253 135.481 334.582 134.12 334.249L132.987 333.971C132.082 333.747 131.675 333.444 131.675 332.858C131.675 332.202 132.371 331.725 133.305 331.725C134.328 331.725 134.751 332.292 134.954 332.818L136.008 332.52ZM142.722 335.323C142.722 336.754 141.629 337.409 140.754 337.409C139.78 337.409 139.085 336.694 139.085 335.581V330.811H137.912V335.66C137.912 337.608 138.946 338.542 140.377 338.542C141.529 338.542 142.285 337.926 142.642 337.151H142.722V338.443H143.895V330.811H142.722V335.323ZM148.288 338.622C149.62 338.622 150.315 337.906 150.554 337.409H150.614V338.443H151.786V333.415C151.786 330.99 149.938 330.711 148.964 330.711C147.811 330.711 146.499 331.109 145.903 332.5L147.016 332.898C147.275 332.341 147.886 331.745 149.004 331.745C150.082 331.745 150.614 332.316 150.614 333.295V333.335C150.614 333.901 150.037 333.852 148.646 334.031C147.23 334.214 145.685 334.528 145.685 336.277C145.685 337.767 146.837 338.622 148.288 338.622ZM148.467 337.568C147.533 337.568 146.857 337.151 146.857 336.336C146.857 335.442 147.672 335.164 148.586 335.044C149.083 334.985 150.415 334.846 150.614 334.607V335.68C150.614 336.634 149.858 337.568 148.467 337.568ZM160.962 338.602C163.029 338.602 164.421 337.032 164.421 334.667C164.421 332.282 163.029 330.711 160.962 330.711C158.895 330.711 157.504 332.282 157.504 334.667C157.504 337.032 158.895 338.602 160.962 338.602ZM160.962 337.549C159.392 337.549 158.677 336.197 158.677 334.667C158.677 333.136 159.392 331.765 160.962 331.765C162.532 331.765 163.248 333.136 163.248 334.667C163.248 336.197 162.532 337.549 160.962 337.549ZM166.37 338.443H167.503V337.27H167.642C167.9 337.688 168.397 338.602 169.868 338.602C171.776 338.602 173.107 337.072 173.107 334.647C173.107 332.242 171.776 330.711 169.848 330.711C168.357 330.711 167.9 331.626 167.642 332.023H167.542V328.267H166.37V338.443ZM167.522 334.627C167.522 332.918 168.278 331.765 169.709 331.765C171.199 331.765 171.935 333.017 171.935 334.627C171.935 336.257 171.179 337.549 169.709 337.549C168.298 337.549 167.522 336.356 167.522 334.627ZM180.307 332.52C179.939 331.437 179.115 330.711 177.604 330.711C175.994 330.711 174.802 331.626 174.802 332.918C174.802 333.971 175.428 334.677 176.829 335.005L178.101 335.303C178.871 335.482 179.234 335.849 179.234 336.376C179.234 337.032 178.538 337.568 177.445 337.568C176.486 337.568 175.885 337.156 175.676 336.336L174.563 336.614C174.836 337.911 175.905 338.602 177.465 338.602C179.239 338.602 180.446 337.633 180.446 336.316C180.446 335.253 179.78 334.582 178.419 334.249L177.286 333.971C176.382 333.747 175.974 333.444 175.974 332.858C175.974 332.202 176.67 331.725 177.604 331.725C178.628 331.725 179.05 332.292 179.254 332.818L180.307 332.52ZM185.411 338.602C186.962 338.602 188.094 337.827 188.452 336.674L187.319 336.356C187.021 337.151 186.331 337.549 185.411 337.549C184.035 337.549 183.086 336.659 183.031 335.024H188.571V334.528C188.571 331.685 186.882 330.711 185.292 330.711C183.225 330.711 181.854 332.341 181.854 334.687C181.854 337.032 183.205 338.602 185.411 338.602ZM183.031 334.011C183.111 332.823 183.95 331.765 185.292 331.765C186.564 331.765 187.379 332.719 187.379 334.011H183.031ZM190.355 338.443H191.528V333.613C191.528 332.58 192.343 331.824 193.456 331.824C193.769 331.824 194.092 331.884 194.171 331.904V330.711C194.037 330.702 193.729 330.692 193.555 330.692C192.641 330.692 191.846 331.208 191.568 331.964H191.488V330.811H190.355V338.443ZM202.034 330.811H200.762L198.656 336.893H198.576L196.469 330.811H195.197L198.02 338.443H199.212L202.034 330.811ZM205.596 338.622C206.927 338.622 207.623 337.906 207.862 337.409H207.921V338.443H209.094V333.415C209.094 330.99 207.245 330.711 206.272 330.711C205.119 330.711 203.807 331.109 203.211 332.5L204.324 332.898C204.582 332.341 205.193 331.745 206.311 331.745C207.39 331.745 207.921 332.316 207.921 333.295V333.335C207.921 333.901 207.345 333.852 205.954 334.031C204.537 334.214 202.992 334.528 202.992 336.277C202.992 337.767 204.145 338.622 205.596 338.622ZM205.775 337.568C204.841 337.568 204.165 337.151 204.165 336.336C204.165 335.442 204.98 335.164 205.894 335.044C206.391 334.985 207.722 334.846 207.921 334.607V335.68C207.921 336.634 207.166 337.568 205.775 337.568ZM214.717 338.582C216.193 338.438 217.152 337.464 217.336 336.217H216.163C215.945 337.052 215.249 337.549 214.335 337.549C212.943 337.549 212.049 336.396 212.049 334.627C212.049 332.898 212.963 331.765 214.335 331.765C215.368 331.765 215.984 332.401 216.163 333.097H217.336C217.137 331.665 215.925 330.711 214.315 330.711C212.248 330.711 210.876 332.341 210.876 334.667C210.876 336.734 211.95 338.284 213.748 338.557L213.579 339.377C214.335 339.437 214.653 339.556 214.653 340.013C214.653 340.47 214.196 340.649 213.579 340.649L213.619 341.424C214.991 341.424 215.706 340.828 215.706 339.973C215.706 339.198 215.189 338.88 214.673 338.801L214.717 338.582ZM221.296 338.622C222.628 338.622 223.323 337.906 223.562 337.409H223.621V338.443H224.794V333.415C224.794 330.99 222.946 330.711 221.972 330.711C220.819 330.711 219.507 331.109 218.911 332.5L220.024 332.898C220.282 332.341 220.893 331.745 222.011 331.745C223.09 331.745 223.621 332.316 223.621 333.295V333.335C223.621 333.901 223.045 333.852 221.654 334.031C220.238 334.214 218.692 334.528 218.692 336.277C218.692 337.767 219.845 338.622 221.296 338.622ZM221.475 337.568C220.541 337.568 219.865 337.151 219.865 336.336C219.865 335.442 220.68 335.164 221.594 335.044C222.091 334.985 223.423 334.846 223.621 334.607V335.68C223.621 336.634 222.866 337.568 221.475 337.568ZM220.521 329.897C220.521 329.479 220.799 329.141 221.177 329.141C221.932 329.141 222.071 329.777 222.985 329.777C223.84 329.777 224.496 329.121 224.496 328.088L223.601 328.008C223.601 328.426 223.303 328.764 222.926 328.764C222.21 328.764 221.872 328.128 221.117 328.128C220.262 328.128 219.607 328.843 219.607 329.857L220.521 329.897ZM230.035 338.602C232.102 338.602 233.493 337.032 233.493 334.667C233.493 332.282 232.102 330.711 230.035 330.711C227.968 330.711 226.576 332.282 226.576 334.667C226.576 337.032 227.968 338.602 230.035 338.602ZM230.035 337.549C228.465 337.549 227.749 336.197 227.749 334.667C227.749 333.136 228.465 331.765 230.035 331.765C231.605 331.765 232.32 333.136 232.32 334.667C232.32 336.197 231.605 337.549 230.035 337.549Z" fill="#869196"/>
<g opacity="0.5" filter="url(#filter6_f)">
<rect x="292.87" y="231.494" width="48.9724" height="48.9724" rx="5.59685" fill="#144B66"/>
</g>
<rect x="289.372" y="221" width="55.9685" height="55.9685" rx="5.59685" fill="#144B66"/>
<path d="M314.908 237.091H318.58C317.812 238.114 317.356 239.386 317.356 240.764C317.356 241.076 317.38 241.383 317.425 241.682L317.356 241.682C313.684 241.682 312.459 244.461 312.459 247.498V255.456H322.254V247.498C322.254 247.249 322.246 247.002 322.228 246.758C322.632 246.841 323.05 246.885 323.478 246.885C323.891 246.885 324.294 246.845 324.684 246.767C324.696 247.007 324.702 247.251 324.702 247.498V254.231L327.151 255.456V257.904H307.562V255.456L310.011 254.231V247.498C310.011 243.727 311.406 240.592 314.908 239.76V237.091Z" fill="#FF585C"/>
<path d="M319.805 240.764C319.805 240.427 319.85 240.102 319.935 239.792C320.361 238.235 321.786 237.091 323.478 237.091C325.507 237.091 327.151 238.735 327.151 240.764C327.151 242.505 325.939 243.963 324.313 244.342C324.045 244.404 323.765 244.437 323.478 244.437C322.709 244.437 321.995 244.201 321.405 243.797C320.922 243.466 320.522 243.022 320.242 242.503C319.963 241.986 319.805 241.393 319.805 240.764Z" fill="#FF585C"/>
<path d="M317.356 261.577C318.703 261.577 319.805 260.475 319.805 259.129H314.908C314.908 260.475 316.01 261.577 317.356 261.577Z" fill="#FF585C"/>
<defs>
<filter id="filter0_i" x="400.544" y="160.372" width="6.45589" height="83.9265" filterUnits="userSpaceOnUse" color-interpolation-filters="sRGB">
<feFlood flood-opacity="0" result="BackgroundImageFix"/>
<feBlend mode="normal" in="SourceGraphic" in2="BackgroundImageFix" result="shape"/>
<feColorMatrix in="SourceAlpha" type="matrix" values="0 0 0 0 0 0 0 0 0 0 0 0 0 0 0 0 0 0 127 0" result="hardAlpha"/>
<feOffset dx="-1.07598"/>
<feGaussianBlur stdDeviation="1.61397"/>
<feComposite in2="hardAlpha" operator="arithmetic" k2="-1" k3="1"/>
<feColorMatrix type="matrix" values="0 0 0 0 0.223837 0 0 0 0 0.246746 0 0 0 0 0.349835 0 0 0 0.094486 0"/>
<feBlend mode="normal" in2="shape" result="effect1_innerShadow"/>
</filter>
<filter id="filter1_i" x="177.816" y="160.372" width="6.45589" height="39.2733" filterUnits="userSpaceOnUse" color-interpolation-filters="sRGB">
<feFlood flood-opacity="0" result="BackgroundImageFix"/>
<feBlend mode="normal" in="SourceGraphic" in2="BackgroundImageFix" result="shape"/>
<feColorMatrix in="SourceAlpha" type="matrix" values="0 0 0 0 0 0 0 0 0 0 0 0 0 0 0 0 0 0 127 0" result="hardAlpha"/>
<feOffset dx="-1.07598"/>
<feGaussianBlur stdDeviation="1.61397"/>
<feComposite in2="hardAlpha" operator="arithmetic" k2="-1" k3="1"/>
<feColorMatrix type="matrix" values="0 0 0 0 0.223837 0 0 0 0 0.246746 0 0 0 0 0.349835 0 0 0 0.094486 0"/>
<feBlend mode="normal" in2="shape" result="effect1_innerShadow"/>
</filter>
<filter id="filter2_i" x="177.816" y="205.026" width="6.45589" height="39.2733" filterUnits="userSpaceOnUse" color-interpolation-filters="sRGB">
<feFlood flood-opacity="0" result="BackgroundImageFix"/>
<feBlend mode="normal" in="SourceGraphic" in2="BackgroundImageFix" result="shape"/>
<feColorMatrix in="SourceAlpha" type="matrix" values="0 0 0 0 0 0 0 0 0 0 0 0 0 0 0 0 0 0 127 0" result="hardAlpha"/>
<feOffset dx="-1.07598"/>
<feGaussianBlur stdDeviation="1.61397"/>
<feComposite in2="hardAlpha" operator="arithmetic" k2="-1" k3="1"/>
<feColorMatrix type="matrix" values="0 0 0 0 0.223837 0 0 0 0 0.246746 0 0 0 0 0.349835 0 0 0 0.094486 0"/>
<feBlend mode="normal" in2="shape" result="effect1_innerShadow"/>
</filter>
<filter id="filter3_ii" x="179.968" y="68.9139" width="224.88" height="461.058" filterUnits="userSpaceOnUse" color-interpolation-filters="sRGB">
<feFlood flood-opacity="0" result="BackgroundImageFix"/>
<feBlend mode="normal" in="SourceGraphic" in2="BackgroundImageFix" result="shape"/>
<feColorMatrix in="SourceAlpha" type="matrix" values="0 0 0 0 0 0 0 0 0 0 0 0 0 0 0 0 0 0 127 0" result="hardAlpha"/>
<feOffset dy="-0.537991"/>
<feGaussianBlur stdDeviation="0.268995"/>
<feComposite in2="hardAlpha" operator="arithmetic" k2="-1" k3="1"/>
<feColorMatrix type="matrix" values="0 0 0 0 0.225741 0 0 0 0 0.230634 0 0 0 0 0.255102 0 0 0 1 0"/>
<feBlend mode="normal" in2="shape" result="effect1_innerShadow"/>
<feColorMatrix in="SourceAlpha" type="matrix" values="0 0 0 0 0 0 0 0 0 0 0 0 0 0 0 0 0 0 127 0" result="hardAlpha"/>
<feOffset dx="-1.07598"/>
<feGaussianBlur stdDeviation="1.61397"/>
<feComposite in2="hardAlpha" operator="arithmetic" k2="-1" k3="1"/>
<feColorMatrix type="matrix" values="0 0 0 0 0.194759 0 0 0 0 0.212861 0 0 0 0 0.294324 0 0 0 0.094486 0"/>
<feBlend mode="normal" in2="effect1_innerShadow" result="effect2_innerShadow"/>
</filter>
<filter id="filter4_i" x="191.804" y="80.2118" width="201.746" height="436.848" filterUnits="userSpaceOnUse" color-interpolation-filters="sRGB">
<feFlood flood-opacity="0" result="BackgroundImageFix"/>
<feBlend mode="normal" in="SourceGraphic" in2="BackgroundImageFix" result="shape"/>
<feColorMatrix in="SourceAlpha" type="matrix" values="0 0 0 0 0 0 0 0 0 0 0 0 0 0 0 0 0 0 127 0" result="hardAlpha"/>
<feOffset dy="1.07598"/>
<feComposite in2="hardAlpha" operator="arithmetic" k2="-1" k3="1"/>
<feColorMatrix type="matrix" values="0 0 0 0 0.12096 0 0 0 0 0.142052 0 0 0 0 0.170174 0 0 0 1 0"/>
<feBlend mode="normal" in2="shape" result="effect1_innerShadow"/>
</filter>
<filter id="filter5_f" x="57.1026" y="241.988" width="272.147" height="194.49" filterUnits="userSpaceOnUse" color-interpolation-filters="sRGB">
<feFlood flood-opacity="0" result="BackgroundImageFix"/>
<feBlend mode="normal" in="SourceGraphic" in2="BackgroundImageFix" result="shape"/>
<feGaussianBlur stdDeviation="6.99606" result="effect1_foregroundBlur"/>
</filter>
<filter id="filter6_f" x="285.874" y="224.498" width="62.9646" height="62.9646" filterUnits="userSpaceOnUse" color-interpolation-filters="sRGB">
<feFlood flood-opacity="0" result="BackgroundImageFix"/>
<feBlend mode="normal" in="SourceGraphic" in2="BackgroundImageFix" result="shape"/>
<feGaussianBlur stdDeviation="3.49803" result="effect1_foregroundBlur"/>
</filter>
<linearGradient id="paint0_linear" x1="338.477" y1="-104.425" x2="122.412" y2="-49.2682" gradientUnits="userSpaceOnUse">
<stop stop-color="#414B5A"/>
<stop offset="1" stop-color="#0F1019"/>
</linearGradient>
<linearGradient id="paint1_linear" x1="302.151" y1="-157.355" x2="-54.3246" y2="15.7394" gradientUnits="userSpaceOnUse">
<stop stop-color="#343643" stop-opacity="0.01"/>
<stop offset="0.325255" stop-color="#434657"/>
<stop offset="1" stop-color="#343643" stop-opacity="0.01"/>
</linearGradient>
<linearGradient id="paint2_linear" x1="196.475" y1="303.116" x2="418.699" y2="340.265" gradientUnits="userSpaceOnUse">
<stop stop-color="#343643" stop-opacity="0.01"/>
<stop offset="0.500391" stop-color="#3C3E50"/>
<stop offset="1" stop-color="#262831" stop-opacity="0.01"/>
</linearGradient>
<linearGradient id="paint3_linear" x1="221.345" y1="169.125" x2="192.837" y2="148.903" gradientUnits="userSpaceOnUse">
<stop stop-color="#FF4964"/>
<stop offset="0.925072" stop-color="#FF774A"/>
</linearGradient>
<linearGradient id="paint4_linear" x1="191.804" y1="80.2118" x2="191.804" y2="517.06" gradientUnits="userSpaceOnUse">
<stop offset="0.0104034" stop-color="#0F101A"/>
<stop offset="0.96594" stop-color="#404A59"/>
</linearGradient>
<linearGradient id="paint5_linear" x1="365.891" y1="551.482" x2="-1.24634" y2="215.777" gradientUnits="userSpaceOnUse">
<stop stop-color="#FF4964"/>
<stop offset="0.925072" stop-color="#FF774A"/>
</linearGradient>
</defs>
</svg>
