<svg width="48" height="48" viewBox="0 0 48 48" fill="none" xmlns="http://www.w3.org/2000/svg">
<path fill-rule="evenodd" clip-rule="evenodd" d="M14.5124 37.8583L11.9578 40.9363C6.95385 36.7832 4 30.6307 4 24C4 17.3784 6.94564 11.2335 11.9377 7.08032L14.4959 10.1553C10.4079 13.5564 8 18.5794 8 24C8 29.428 10.4146 34.4573 14.5124 37.8583ZM33.4876 37.8583L36.0422 40.9363C41.0462 36.7832 44 30.6307 44 24C44 17.3784 41.0544 11.2335 36.0623 7.08032L33.5041 10.1553C37.5922 13.5564 40 18.5794 40 24C40 29.428 37.5854 34.4573 33.4876 37.8583ZM28.357 31.7198L30.9018 34.8059C34.1058 32.1639 36 28.2347 36 24C36 19.7791 34.1182 15.8614 30.9323 13.2192L28.3788 16.2982C30.6579 18.1883 32 20.9824 32 24C32 27.0275 30.649 29.8298 28.357 31.7198ZM17.0982 34.8059L19.643 31.7198C17.351 29.8298 16 27.0275 16 24C16 20.9824 17.3421 18.1883 19.6212 16.2982L17.0678 13.2192C13.8818 15.8614 12 19.7791 12 24C12 28.2347 13.8943 32.1639 17.0982 34.8059Z" fill="white"/>
<path fill-rule="evenodd" clip-rule="evenodd" d="M24 28C26.2091 28 28 26.2091 28 24C28 21.7909 26.2091 20 24 20C21.7909 20 20 21.7909 20 24C20 26.2091 21.7909 28 24 28Z" fill="#144B66"/>
</svg>
